{
  "project_info": {
    "project_number": "1096490055074",
    "firebase_url": "https://maratonaxamarin-8bf82.firebaseio.com",
    "project_id": "maratonaxamarin-8bf82",
    "storage_bucket": "maratonaxamarin-8bf82.appspot.com"
  },
  "client": [
    {
      "client_info": {
        "mobilesdk_app_id": "1:1096490055074:android:816581bb42f46112",
        "android_client_info": {
          "package_name": "br.com.shaft.monkeyhubapp"
        }
      },
      "oauth_client": [
        {
          "client_id": "1096490055074-08d3hgft1cb7qiht4l5kd63bkomivnua.apps.googleusercontent.com",
          "client_type": 3
        }
      ],
      "api_key": [
        {
          "current_key": "AIzaSyDazNr86VYq4XlByBQeeZDKn7YhBLNDhOs"
        }
      ],
      "services": {
        "analytics_service": {
          "status": 1
        },
        "appinvite_service": {
          "status": 1,
          "other_platform_oauth_client": []
        },
        "ads_service": {
          "status": 2
        }
      }
    },
    {
      "client_info": {
        "mobilesdk_app_id": "1:1096490055074:android:ac74f097dfae673f",
        "android_client_info": {
          "package_name": "br.com.shaft.monkeyhubapp2"
        }
      },
      "oauth_client": [
        {
          "client_id": "1096490055074-08d3hgft1cb7qiht4l5kd63bkomivnua.apps.googleusercontent.com",
          "client_type": 3
        }
      ],
      "api_key": [
        {
          "current_key": "AIzaSyDazNr86VYq4XlByBQeeZDKn7YhBLNDhOs"
        }
      ],
      "services": {
        "analytics_service": {
          "status": 1
        },
        "appinvite_service": {
          "status": 1,
          "other_platform_oauth_client": []
        },
        "ads_service": {
          "status": 2
        }
      }
    }
  ],
  "configuration_version": "1"
}